Pivot tables | Glyn Mottershead
…
I’m going to store it in a new data frame called bikes. We’ll be using the crimes data frame we made earlier and then filtering it, before assigning the new information to bikes. So bikes <- crimes.

The next bit of the code is %>% a pipe - essentially you can say and then to yourself when you write it. Our next function is a filter(), it does a similar job to the Excel function of the same name.

Most functions will need you to say which data frame you are working on and then what you want to do. So we could say filter(data_frame, column_name == "text we want back").

But dplyr knows we are working on the data frame before the first %>%, so our code becomes simpler and we just need the column name and the text to grab.1

bikes <- crimes %>%
  filter(`Crime type` == "Bicycle theft") 

# If I use the dataframe name on its own and run that line I can see what is in it
bikes

## # A tibble: 126 x 12
##    `Crime ID` Month `Reported by` `Falls within` Longitude Latitude Location
##    <chr>      <chr> <chr>         <chr>              <dbl>    <dbl> <chr>   
##  1 0fad86217… 2019… South Wales … South Wales P…     -3.54     51.5 On or n…
##  2 5ea5f1bb3… 2019… South Wales … South Wales P…     -3.19     51.5 On or n…
##  3 ab5c7a5c7… 2019… South Wales … South Wales P…     -3.12     51.5 On or n…
##  4 44e702929… 2019… South Wales … South Wales P…     -3.23     51.5 On or n…
##  5 979ee8076… 2019… South Wales … South Wales P…     -3.09     51.5 On or n…
##  6 34490753e… 2019… South Wales … South Wales P…     -3.12     51.5 On or n…
##  7 59c9863ef… 2019… South Wales … South Wales P…     -3.12     51.5 On or n…
##  8 7029c550b… 2019… South Wales … South Wales P…     -3.22     51.5 On or n…
##  9 f8f063bad… 2019… South Wales … South Wales P…     -3.22     51.5 On or n…
## 10 cdd878455… 2019… South Wales … South Wales P…     -3.20     51.5 On or n…
## # … with 116 more rows, and 5 more variables: `LSOA code` <chr>, `LSOA
## #   name` <chr>, `Crime type` <chr>, `Last outcome category` <chr>,
## #   Context <lgl>
…
