Pivot tables in R - looking at police data | Glyn Mottershead
…
I’m going to store it in a new data frame called bikes. We’ll be using the crimes data frame we made earlier and then filtering it, before assigning the new information to bikes. So bikes <- crimes.

The next bit of the code is %>% a pipe - essentially you can say and then to yourself when you write it. Our next function is a filter(), it does a similar job to the Excel function.

Most functions will need you to say which data frame you are working on and then what you want to do. So we could say filter(data_frame, column_name == "text we want back").

But dplyr knows we are working on the data frame before the first %>%.

bikes <- crimes %>%
  filter(`Crime type` == "Bicycle theft") 

# If I use the dataframe name on its own and run that line I can see what is in it
bikes

## # A tibble: 126 x 12
##    `Crime ID` Month `Reported by` `Falls within` Longitude Latitude
##    <chr>      <chr> <chr>         <chr>              <dbl>    <dbl>
##  1 0fad86217… 2019… South Wales … South Wales P…     -3.54     51.5
##  2 5ea5f1bb3… 2019… South Wales … South Wales P…     -3.19     51.5
##  3 ab5c7a5c7… 2019… South Wales … South Wales P…     -3.12     51.5
##  4 44e702929… 2019… South Wales … South Wales P…     -3.23     51.5
##  5 979ee8076… 2019… South Wales … South Wales P…     -3.09     51.5
##  6 34490753e… 2019… South Wales … South Wales P…     -3.12     51.5
##  7 59c9863ef… 2019… South Wales … South Wales P…     -3.12     51.5
##  8 7029c550b… 2019… South Wales … South Wales P…     -3.22     51.5
##  9 f8f063bad… 2019… South Wales … South Wales P…     -3.22     51.5
## 10 cdd878455… 2019… South Wales … South Wales P…     -3.20     51.5
## # … with 116 more rows, and 6 more variables: Location <chr>, `LSOA
## #   code` <chr>, `LSOA name` <chr>, `Crime type` <chr>, `Last outcome
## #   category` <chr>, Context <lgl>
…
